{
        "kind": "parcels",
        "fieldset": {
            "params": {
                "field": "",
                "variables": {"U": "u_velocity", "V": "v_velocity", "W": "w_velocity"},
                "dimensions": {"time": "time", "depth": "depth",
                               "lat": "latitude", "lon": "longitude"}
            }
        },
        "particles": {
            "generator": {
                "method": "at_location",
                "params": {
                    "n_particles": 1,
                    "latitude": [39.6],
                    "longitude": [2.4]
                }
            },
            "pclass": "JITParticle"
        },
        "kernels": {
            "sequence": ["AdvectionRK4_3D"]
        },
        "execution": {
            "dt": {"minutes": 1},
            "outputdt": {"minutes": 5},
            "runtime": {"seconds": 300}
        }
    }
