{
  "kind": "parcels",
  "fieldset": {
      "params": {
          "field": "",
          "variables": {"U": "u", "V": "v", "W": "w"},
          "dimensions": {"time": "ocean_time", "depth": "depth", "lat": "lat", "lon": "lon"}
      }
  },
  "particles": {
      "generator": {
          "method": "at_location",
          "params": {
              "n_particles": 1,
              "latitude": [39.6],
              "longitude": [2.4]
          }
      },
      "pclass": "JITParticle"
  },
  "kernels": {
      "sequence": ["AdvectionRK4_3D"]
  },
  "execution": {
      "dt": {"minutes": 1},
      "outputdt": {"minutes": 5},
      "runtime": {"hours": 12}
  }
}
